{
  "classes": "card-wrapper",
  "card_wrapper_title": "Card deck title",
  "image_position": "top",
  "card_wrapper": [
    {
      "content": "<p class=\"card-text\">With supporting text below as a natural lead-in to additional content.</p><a href='#'>With a link</a>",
      "header": "Card 1",
      "footer": "",
      "image": "<img src=\"kss-assets/img/placeholder_1.jpg\" >",
      "modifier_class": "bg-brand"
    },
    {
      "content": "<p class=\"card-text\">With supporting text below as a natural lead-in to additional content.</p><a href='#'>With a link</a>",
      "header": "Card 2",
      "footer": "",
      "image": "<img src=\"kss-assets/img/placeholder_2.jpg\" >",
      "modifier_class": "bg-brand-lightest"
    },
    {
      "content": "<p class=\"card-text\">With supporting text below as a natural lead-in to additional content.</p>",
      "header": "Card 3",
      "footer": "",
      "card-modifier-class": "bg-brand",
      "image": "<img src=\"kss-assets/img/placeholder_3.jpg\" >",
      "modifier_class": "bg-gray"
    },
    {
      "content": "<p class=\"card-text\">A card with multiple paragraphs</p><p class=\"card-text\">With supporting text below as a natural lead-in to additional content.</p>",
      "header": "Card 4",
      "footer": "",
      "class": "",
      "card_link": "#",
      "modifier_class": "bg-gray-lightest"
    },
    {
      "content": "<p class=\"card-text\">With supporting text below as a natural lead-in to additional content.</p>",
      "header": "Card 5",
      "footer": "",
      "class": "",
      "card_link": "#",
      "modifier_class": "bg-white"
    },
    {
      "content": "<p class=\"card-text\">With supporting text below as a natural lead-in to additional content.</p>",
      "header": "Card 6",
      "footer": "",
      "class": "",
      "card_link": "#",
      "modifier_class": "bg-white"
    },
    {
      "content": "<p class=\"card-text\">A card without a title</p>",
      "header": "",
      "footer": "",
      "class": "",
      "modifier_class": "bg-white"
    },
    {
      "content": "<p class=\"card-text\">A card without a title</p>",
      "header": "",
      "footer": "",
      "class": "",
      "modifier_class": "bg-white"
    },
    {
      "content": "<p class=\"card-text\">A card without a title</p>",
      "header": "",
      "footer": "",
      "class": "",
      "modifier_class": "bg-white"
    }
  ]
}
