{
  "classes": "card-wrapper bg-brand-lightest",
  "card_wrapper_title": "Card deck title",
  "image_position": "left",
  "card_wrapper": [
    {
      "content": "<p class=\"card-text\">With supporting text below as a natural lead-in to additional content.</p></p><a href='#'>With a link</a>",
      "header": "header",
      "footer": "",
      "image": "<img src=\"kss-assets/img/placeholder_1.jpg\">",
      "modifier_class": "bg-brand"
    },
    {
      "content": "<p class=\"card-text\">With supporting text below as a natural lead-in to additional content.</p><p class=\"card-text\">With supporting text below as a natural lead-in to additional content.</p><a href='#'>With a link</a>",
      "header": "",
      "footer": "",
      "image": "<img src=\"kss-assets/img/placeholder_2.jpg\">",
      "modifier_class" : "bg-brand-lightest"
    },
    {
      "content": "<p class=\"card-text\">With supporting text below as a natural lead-in to additional content.</p><p class=\"card-text\">With supporting text below as a natural lead-in to additional content.</p>",
      "header": "header",
      "footer": "",
      "image": "<img src=\"kss-assets/img/placeholder_2.jpg\">",
      "modifier_class": "bg-gray"
    },
    {
      "content": "<p class=\"card-text\">With supporting text below as a natural lead-in to additional content.</p><p class=\"card-text\">With supporting text below as a natural lead-in to additional content.</p>",
      "header": "",
      "footer": "",
      "image": "<img src=\"kss-assets/img/placeholder_2.jpg\">",
      "modifier_class": "bg-gray-lightest"
    }
  ]
}
