{
  "cardlist": [
    {
      "content": "<p class=\"card-text\">Lorem ipsum dolor sit amet, consectetur adipiscing elit. Sed odio leo, posuere in justo a, posuere tempor justo. Vestibulum sit amet libero accumsan, commodo nisl nec, commodo arcu. Class aptent taciti sociosqu ad litora torquent per conubia nostra, per inceptos himenaeos. Nunc ultricies turpis nisi. Pellentesque nunc mauris, accumsan at libero eget, pretium consequat turpis. Aenean ultricies pulvinar maximus. Maecenas dignissim, urna mattis facilisis dignissim, magna dui euismod enim, vel molestie felis arcu a ipsum. Maecenas tortor odio, pharetra eget massa non, commodo malesuada eros. Suspendisse potenti.</p>",
      "title": "card list item 1",
      "image": "<img src=\"kss-assets/img/placeholder_1.jpg\" >",
      "footer": "Footer tekst",
      "class": "bg-primary"
    },
    {
      "content": "<p class=\"card-text\">Lorem ipsum dolor sit amet, consectetur adipiscing elit. Sed odio leo, posuere in justo a, posuere tempor justo. Vestibulum sit amet libero accumsan, commodo nisl nec, commodo arcu. Class aptent taciti sociosqu ad litora torquent per conubia nostra, per inceptos himenaeos. Nunc ultricies turpis nisi. Pellentesque nunc mauris, accumsan at libero eget, pretium consequat turpis. Aenean ultricies pulvinar maximus. Maecenas dignissim, urna mattis facilisis dignissim, magna dui euismod enim, vel molestie felis arcu a ipsum. Maecenas tortor odio, pharetra eget massa non, commodo malesuada eros. Suspendisse potenti.</p>",
      "title": "card list item 2",
      "image": "<img src=\"kss-assets/img/placeholder_1.jpg\" >",
      "footer": "Footer tekst",
      "class": "bg-primary"
    },
    {
      "content": "<p class=\"card-text\">Lorem ipsum dolor sit amet, consectetur adipiscing elit. Sed odio leo, posuere in justo a, posuere tempor justo. Vestibulum sit amet libero accumsan, commodo nisl nec, commodo arcu. Class aptent taciti sociosqu ad litora torquent per conubia nostra, per inceptos himenaeos. Nunc ultricies turpis nisi. Pellentesque nunc mauris, accumsan at libero eget, pretium consequat turpis. Aenean ultricies pulvinar maximus. Maecenas dignissim, urna mattis facilisis dignissim, magna dui euismod enim, vel molestie felis arcu a ipsum. Maecenas tortor odio, pharetra eget massa non, commodo malesuada eros. Suspendisse potenti.</p>",
      "title": "card list item 3",
      "image": "<img src=\"kss-assets/img/placeholder_1.jpg\" >",
      "footer": "Footer tekst",
      "class": "bg-primary"
    }
  ]
}